1 10 20
100 200 125
201 210 89
900 1000 174
1 2 2
100 200 125
1234 4321 238
69 6969 262
300 400 144
90000 10 351
4321 12 238
2654 2379 209
199 1302 182
351 894 179
875 2975 217
319 2677 209
496 2660 209
1785 1703 180
1457 686 182
696 3328 217
3581 2925 199
230 2720 209
3613 767 217
601 3551 217
2758 1829 209
1938 1582 180
2303 1385 183
2597 249 209
1461 3656 217
1612 829 182
1099 439 179
444 1144 179
2835 3466 217
711 412 171
1911 2809 209
346 85 144
1181 48 182
3138 2927 186
24 2767 209
1074 896 174
3078 1703 217
2962 2083 217
2759 2387 209
2957 2951 142
740 1883 182
3099 3021 186
1039 2240 183
299 794 171
1343 112 182
940 278 179
194 1428 182
3349 3317 181
3314 2286 217
2857 374 209
1576 3082 217
11320 11251 206
1412 12049 268
10143 12598 268
3777 8951 262
1704 13311 276
9906 5959 262
3868 12906 268
3739 2420 238
3561 11399 268
8823 10581 260
7979 8740 234
2034 7085 262
10844 6887 260
4818 2342 238
7479 7987 252
960 5417 238
11242 5235 268
8658 2941 262
6684 1633 262
3625 6169 238
7266 8944 252
4406 8147 262
7254 10716 260
4501 2702 238
10420 7703 260
2198 9876 262
9637 4637 262
599 2573 209
2033 3310 217
126 7590 262
5394 3828 215
4372 9117 262
333 4558 238
5407 4410 210
1893 7924 262
5917 7695 262
1805 2796 209
1798 722 182
89 6225 262
8690 1476 262
664 1436 182
503 8663 262
4229 2155 238
4356 6786 262
2122 4173 238
2808 412 209
755 1187 182
8371 7907 252
7639 1773 262
7267 345 262
2429 7695 262
52 2924 217
5349 7743 262
1305 4971 238
2248 7382 262
5833 5836 81
3782 123 238
4800 339 238
2179 6521 262
3484 6220 262
7643 3200 262
861 3326 217
1312 7225 262
4997 5147 179
4384 1291 238
1639 4121 238
4476 6018 236
458 7161 262
366 4352 238
3053 3653 199
5484 1986 238
5941 6334 262
6297 3704 262
2504 1758 209
4562 129 238
286 229 128
4972 6255 262
6520 4751 262
429 4736 238
2959 829 217
3227 1869 217
2530 384 209
1863 4142 238
1419 1905 180
4417 4281 215
3117 895 217
6408 5869 262
5894 3466 238
3093 4093 238
4185 2359 238
2362 1243 183
3852 1325 238
5581 694 238
182 1072 179
352 1117 179
385 2381 183
966 3614 217
5758 1925 238
3735 5270 215
2748 1854 209
57 3819 238
2379 46 183
4710 4592 184
4528 4918 197
4258 4825 215
516 5230 238
1724 3038 217
1954 3474 217
5008 1759 238
3461 3474 150
1316 4946 238
771 5286 238
848 4006 238
1028 4099 238
3579 1087 217
468 1897 182
636 1024 179
192 4727 238
1491 2351 183
3547 1531 217
5258 706 238
4396 506 238
1869 1203 180
1492 1292 177
1118 528 179
5027 1409 238
3292 1178 217
2576 3265 217
2455 3296 217
3168 3758 238
4633 4574 171
2747 715 209
2999 2923 173
2094 1051 182
746 496 171
1534 231 182
1936 687 182
2878 4442 238
121 2829 209
2619 4048 238
1967 10 182
3599 2575 217
2191 2088 170
4151 623 238
4637 240 238
3528 2209 217
1244 403 182
2592 4278 238
2646 1814 209
3225 2883 217
1166 3577 217
1765 3387 217
4481 3786 215
952 1917 182
2522 3985 238
2703 1602 209
419 1535 182
1028 2840 209
2943 4312 238
1353 2183 180
127 1285 182
285 4130 238
1150 2034 182
2233 4167 238
3617 957 217
2331 2324 152
2613 320 209
473 3921 238
1058 2322 183
278 3078 217
1583 1441 172
3115 298 217
1933 4085 238
968 533 179
2238 1160 183
2535 2857 191
1856 3923 238
1966 2001 144
1059 2714 209
1884 3726 238
1266 1220 177
1760 3113 217
142631 51463 375
92881 99933 328
55983 11291 340
101672 95132 341
62633 34343 340
23116 52995 340
73123 19748 340
19473 59712 340
21289 10958 279
17583 22130 279
29031 848 308
35567 55979 340
22271 10410 279
6939 46372 324
39017 3884 324
1233 14656 276
18725 7384 279
28596 10550 308
38282 22015 324
9924 13037 268
8047 4854 262
29206 21147 308
7106 15518 276
23385 16350 279
26671 17770 308
25667 19349 282
2458 8465 262
8986 14244 276
5470 28163 308
18032 12681 279
24786 8855 282
21562 13380 279
4304 24185 282
3065 21685 279
19241 8173 279
23335 139 279
8948 2657 262
15261 8070 276
12844 5479 268
20847 19128 274
4417 21008 279
6081 5858 187
16390 16769 266
10233 13112 268
17998 14498 279
6967 13597 276
4048 18477 279
5131 4821 210
4322 12349 268
13334 2545 276
11018 8666 268
11959 12465 263
10468 2934 262
11629 6401 268
2506 11558 268
8365 1200 262
2036 16060 276
15840 1398 276
3777 8754 262
1065 1419 182
8527 5974 262
3341 5172 238
12530 1493 268
