1 10 20
100 200 125
201 210 89
900 1000 174
12 8345 262
457 982 179
89 20395 279
55 55 113
234 8 128
24 943 179
23 25 24
67 986 179
4 96 116
987 7 179
26 968 179
92 3 116
209 83475 351
23 98467 351
978346 34 525
734 9836 262
7645 23 262
87234 38 351
65 809 171
209783 43 383
2 3456 217
1 1 1
2345 8534 262
3594 92 217
74 9354 262
923 23579 282
13 9723 262
8 34 112
24 936 179
273 486 144
84 197 125
60 3 113
2469 25 209
2379 57 183
8 5 17
26987 239587 443
973 3967 238
237 498 144
209375 98235 383
2530 2452 209
809 810 47
25 34609 311
7 34 112
8 9 20
3864 3425 238
9346 28234 308
364235 843345 525
2 42 112
23 9023 262
42 34 110
36 2398 183
465 343 134
2539 23985 282
9846 292352 443
394786 5854 443
75 98 119
5 238 128
346 520 142
983 52 179
35 25 112
8 13 20
23 23406 279
3 34 112
2 3408 217
309 3609 217
2975 4785 238
34609 78942 351
4390 345089 443
20389 230598 386
20589 25085 282
2509 8684 262
2974 3253 199
30496 30496 34
235 235 128
2346 23095 279
2096 34968 311
943 8025 262
234 858 171
2323 25524 282
230984 289354 407
20895 23456 269
2359 843 183
98235 92764 328
239 5498 238
9845 130 262
4 8 17
934 1 179
95 5 116
984 96 179
48 42 105
248 83 128
4 5 6
56 2498 209
665 845 171
384 444 134
44 985 179
934 955 174
34 90 116
230940 289459 407
45 956 179
9034 34843 311
23 23 16
2346 5 183
983 432 179
8235 9723 260
83 92 111
28 43 110
3985 3985 52
3 8 17
23 9485 262
431 23542 282
234 27 128
123 345 144
243 2315 183
23 241 128
4 65 113
34 456 144
235 67 128
23427 347234 443
34 2346 183
524723 346237 470
23 2346 183
235 346 144
234 2357 183
2345 235723 443
2346 2346 121
2347 234623 443
23 235 128
234 34763 311
978 567 179
9 56 113
9756 475 262
679 47 145
976 456 179
978 45 179
578956 457987 470
98765 5463 351
867 456 171
84678 46748 351
67857 46568 340
867 456 171
357 678 145
7568 475867 449
8576 45 262
6785 546874 470
8456 45674 324
78 365 144
678 567 145
5 4 6
7 3 17
6 8 17
3 5 8
7 89 116
1 2 2
2 3 8
3 4 8
4 5 6
5 6 9
6 7 17
7 8 17
8 9 20
45 57 113
23 34 112
1 23 21
35 56 113
7 78 116
865 45 171
98765 7654 351
54 32 113
98765 6543 351
987654 765432 525
98765 54322 351
34 57 113
564645 23434 470
43 532 144
563 456 142
57867 56454 304
675 45645 324
34 23 112
5635 3456 238
734683 345 509
87546 457646 449
9876 65443 340
888 5665 238
777 444 171
4565 365765 443
8765 342 262
85 84 10
934 9832 262
8753 7245 252
7234 394864 443
348 956 179
47 23 112
6 2 9
386 234 144
8954 234 262
5 42 112
57867 34534 340
65 7345 262
245 5635 238
56 365543 443
999999 1 525
