877720 297411 525
640309 957784 525
961768 862016 507
949109 447811 525
738532 635068 504
71298 846798 525
828223 151631 509
517983 90729 470
967744 308713 525
745627 703074 504
173292 192893 365
345098 286509 389
685321 420370 509
962604 997319 458
198870 398711 443
911136 462738 525
970860 973233 352
334025 823619 509
70234 190449 383
355892 285963 441
755416 85763 509
127090 526688 470
34255 485984 449
45461 235296 443
858681 810218 525
254516 314819 407
768839 743613 468
545478 848239 525
346464 887092 525
782988 973633 525
981879 356875 525
457505 57297 449
8818 321269 443
787090 889127 525
11817 251866 443
332058 571109 470
460351 974875 525
918564 192983 525
128709 483542 449
462762 63875 449
209837 745343 509
931907 5966 525
539708 724212 509
154796 549400 470
83107 936788 525
260426 52167 443
456551 545774 470
358654 712559 509
546593 934725 525
205299 17419 383
44275 716490 509
283006 652314 509
249971 339611 407
367903 796174 509
804389 628760 504
903439 624373 525
159581 754177 509
607383 343920 470
805432 194967 509
876285 349937 525
208302 37213 383
5603 599479 470
236726 270304 407
628219 546930 509
282670 782251 509
242954 744982 509
772055 115770 509
479507 359497 449
986744 626598 525
489745 968531 525
81058 599267 470
190575 826408 509
872250 874901 388
532697 949307 525
409406 277398 441
298610 304493 371
784650 604930 509
306755 734980 509
364660 630639 509
577584 869536 525
900147 108431 525
960217 136939 525
311370 250787 407
470832 443610 444
388512 426290 449
758745 462488 509
799349 727951 468
583059 394885 470
286621 607623 470
507223 463630 426
309204 214286 443
280188 454343 449
448966 470978 444
120933 786475 509
105401 234133 443
855757 821520 525
170565 400482 443
22424 288580 443
174030 475733 449
490174 186393 449
541151 747534 509
897993 996677 507
408392 493164 449
21323 260849 443
779790 798643 468
114038 773457 509
844459 840755 388
661376 44150 509
46644 383789 443
586877 529088 452
622268 236216 470
376995 314195 441
423955 605255 470
794744 449369 509
852678 701291 525
579659 74773 470
415097 711652 509
545937 648316 509
237676 123633 443
582334 318015 470
155459 297987 443
678838 601860 509
189825 846879 525
306928 685658 509
423746 143018 449
187310 518039 470
133921 178278 383
884307 722675 525
747480 122414 509
498514 193561 449
287296 299110 389
4789 516291 470
811388 802150 406
233224 438370 449
962576 656370 525
781815 741350 468
934012 146176 525
129635 858391 525
725431 310667 509
958267 930111 507
819921 318082 509
514629 44042 470
610006 772567 509
784712 291802 509
700976 42280 509
730728 610216 509
184434 382408 443
592585 323205 470
501249 146696 449
375049 728178 509
653316 794090 504
48242 813027 509
114588 195912 383
778021 177514 509
3152 639614 509
865948 205388 525
994692 522874 525
847868 668811 525
289038 193492 443
489307 255674 449
557995 544763 452
389296 79012 443
832818 42618 509
133709 858680 525
101379 707788 509
902806 511319 525
588924 28815 470
204586 539548 470
72992 243641 443
811111 77216 509
223004 686141 509
105315 889745 525
424714 8488 449
114183 358712 443
288917 141871 443
989697 922173 507
12747 405268 443
657445 824553 504
331912 137940 443
406832 155989 443
450361 193578 449
799908 109445 509
179956 146954 383
512710 562204 452
829570 529682 509
432988 944489 525
30385 212249 383
665834 389792 509
581861 866806 525
619892 575966 447
751701 674238 504
70127 492325 449
473189 620048 470
158471 504270 449
761931 267415 509
618750 610124 447
874159 569506 525
978465 63713 525
921808 113842 525
851240 352165 525
297725 824164 509
225238 631676 509
865695 49895 525
229208 924586 525
132852 740363 509
884196 30709 525
429487 728147 509
756904 674427 504
29092 818160 509
838120 121451 525
761692 111345 509
218287 860541 525
679856 98403 509
934324 582826 525
865009 885567 432
34833 564427 470
930053 424300 525
619109 788080 509
708951 884177 525
164914 748661 509
915736 387800 525
602129 458410 470
775041 264229 509
214475 720010 509
255841 978700 525
255667 406219 441
625357 703667 509
949545 831525 525
314571 133116 443
706883 140409 509
821410 590351 509
845495 765161 525
154987 119841 375
64722 175402 383
573300 22236 470
955855 374891 525
115225 603681 470
107234 69765 354
55575 946413 525
896963 315930 525
878135 297488 525
272263 878208 525
36003 427411 449
943737 756790 525
383480 205799 443
782249 903268 525
693001 140052 509
102358 215612 383
374349 790771 509
